Project Draft
…
properties %>%
  group_by(Owner) %>%
  summarize(
    NumberOfProperties = n(),
    TotalValue = sum(PropertyValue)
  ) %>% 
  arrange(desc(NumberOfProperties)) %>% 
  top_n(20, NumberOfProperties)

## # A tibble: 21 x 3
##    Owner                                   NumberOfProperties TotalValue
##    <chr>                                                <int>      <dbl>
##  1 DIEMER PROPERTIES                                       32    5695800
##  2 MCGOWAN JOHN STUART                                     26    8411300
##  3 CHAMPLAIN HOUSING TRUST INC                             22    6491200
##  4 BPJS MANAGEMENT LLC                                     21    8839200
##  5 J & S LLC                                               20    9104400
##  6 ROONEY RICHARD A                                        20    3280900
##  7 CLAIRE POINTE OWNERS ASSOCIATION                        18   33130800
##  8 PBGC LLC                                                18    9997500
##  9 BURLINGTON REALTY ASSOCIATES                            17    2463700
## 10 SISTERS & BROTHERS INVESTMENT GROUP LLP                 17   13985100
## # ... with 11 more rows
